<?xml version="1.0" encoding="UTF-8" standalone="no"?>
<!-- Created with Inkscape (http://www.inkscape.org/) -->

<svg
   width="60"
   height="60"
   viewBox="0 0 59.999999 60.000002"
   version="1.1"
   id="svg8"
   xmlns="http://www.w3.org/2000/svg"
   xmlns:svg="http://www.w3.org/2000/svg"
   xmlns:rdf="http://www.w3.org/1999/02/22-rdf-syntax-ns#"
   xmlns:cc="http://creativecommons.org/ns#"
   xmlns:dc="http://purl.org/dc/elements/1.1/">
  <defs
     id="defs2" />
  <metadata
     id="metadata5">
    <rdf:RDF>
      <cc:Work
         rdf:about="">
        <dc:format>image/svg+xml</dc:format>
        <dc:type
           rdf:resource="http://purl.org/dc/dcmitype/StillImage" />
        <dc:creator>
          <cc:Agent>
            <dc:title>Aristotelis P. (Glutanimate)</dc:title>
          </cc:Agent>
        </dc:creator>
        <dc:rights>
          <cc:Agent>
            <dc:title>Copyright (c) 2022 Aristotelis P. (Glutanimate)</dc:title>
          </cc:Agent>
        </dc:rights>
        <dc:source>https://glutanimate.com</dc:source>
      </cc:Work>
    </rdf:RDF>
  </metadata>
  <g
     id="layer1"
     transform="translate(0,-1062.5196)">
    <g
       id="text817"
       style="fill:#022255;fill-opacity:1;fill-rule:evenodd;stroke:none;stroke-width:0;stroke-miterlimit:4;stroke-dasharray:none;stroke-dashoffset:0;stroke-opacity:1"
       aria-label="[   ]"
       transform="matrix(1.2503609,0,0,1.2503609,-7.5108286,-273.52425)">
      <path
         id="path819"
         style="fill:#022255;fill-opacity:1;stroke:none;stroke-width:0"
         d="m 15.483714,1110.6117 v -4.3983 h -3.899538 v -27.3875 h 3.899538 v -4.3983 H 6.0069285 v 36.1841 z" />
      <path
         id="path821"
         style="fill:#022255;fill-opacity:1;stroke:none;stroke-width:0"
         d="m 44.516289,1074.4276 v 4.3983 h 3.899538 v 27.3875 h -3.899538 v 4.3983 h 9.476785 v -36.1841 z" />
    </g>
    <path
       style="fill:#0e74ff;fill-opacity:1;fill-rule:evenodd;stroke:#0e74ff;stroke-width:4.64746;stroke-linecap:butt;stroke-linejoin:miter;stroke-miterlimit:4;stroke-dasharray:none;stroke-opacity:1"
       d="M 15,1081.7125 H 45"
       id="path11910" />
    <path
       style="fill:#0e74ff;fill-opacity:1;fill-rule:evenodd;stroke:#0e74ff;stroke-width:4.64746;stroke-linecap:butt;stroke-linejoin:miter;stroke-miterlimit:4;stroke-dasharray:none;stroke-opacity:1"
       d="M 15,1101.7125 H 45"
       id="path15350" />
    <path
       style="fill:#0e74ff;fill-opacity:1;fill-rule:evenodd;stroke:#0e74ff;stroke-width:4.64746;stroke-linecap:butt;stroke-linejoin:miter;stroke-miterlimit:4;stroke-dasharray:none;stroke-opacity:1"
       d="M 15,1091.7125 H 45"
       id="path15352" />
  </g>
</svg>
