<?xml version="1.0" encoding="UTF-8" standalone="no"?>
<!-- Created with Inkscape (http://www.inkscape.org/) -->

<svg
   width="60"
   height="60"
   viewBox="0 0 59.999999 60.000002"
   version="1.1"
   id="svg8"
   xmlns="http://www.w3.org/2000/svg"
   xmlns:svg="http://www.w3.org/2000/svg"
   xmlns:rdf="http://www.w3.org/1999/02/22-rdf-syntax-ns#"
   xmlns:cc="http://creativecommons.org/ns#"
   xmlns:dc="http://purl.org/dc/elements/1.1/">
  <defs
     id="defs2" />
  <metadata
     id="metadata5">
    <rdf:RDF>
      <cc:Work
         rdf:about="">
        <dc:format>image/svg+xml</dc:format>
        <dc:type
           rdf:resource="http://purl.org/dc/dcmitype/StillImage" />
        <dc:creator>
          <cc:Agent>
            <dc:title>Aristotelis P. (Glutanimate)</dc:title>
          </cc:Agent>
        </dc:creator>
        <dc:rights>
          <cc:Agent>
            <dc:title>Copyright (c) 2022 Aristotelis P. (Glutanimate)</dc:title>
          </cc:Agent>
        </dc:rights>
        <dc:source>https://glutanimate.com</dc:source>
      </cc:Work>
    </rdf:RDF>
  </metadata>
  <g
     id="text817"
     style="font-style:normal;font-variant:normal;font-weight:900;font-stretch:semi-condensed;font-size:45.3435px;line-height:1000%;text-align:center;writing-mode:lr-tb;text-anchor:middle;fill:#022255;fill-opacity:1;fill-rule:evenodd;stroke:none;stroke-width:0;stroke-miterlimit:4;stroke-dasharray:none;stroke-dashoffset:0;stroke-opacity:1"
     aria-label="[   ]"
     transform="matrix(1.2503609,0,0,1.2503609,-7.5108286,-1336.0439)">
    <path
       id="path819"
       style="fill:#022255;fill-opacity:1;stroke:none;stroke-width:0"
       d="m 15.483714,1110.6117 v -4.3983 h -3.899538 v -27.3875 h 3.899538 v -4.3983 H 6.0069285 v 36.1841 z" />
    <path
       id="path821"
       style="fill:#022255;fill-opacity:1;stroke:none;stroke-width:0"
       d="m 44.516289,1074.4276 v 4.3983 h 3.899538 v 27.3875 h -3.899538 v 4.3983 h 9.476785 v -36.1841 z" />
  </g>
  <text
     xml:space="preserve"
     style="font-size:96px;line-height:100%;font-family:'Helvetica Neue LT Std';-inkscape-font-specification:'Helvetica Neue LT Std';fill:#022255;fill-opacity:1;fill-rule:evenodd;stroke:#0e74ff;stroke-width:4;stroke-linecap:round;stroke-linejoin:round;word-spacing:0px"
     x="11.424149"
     y="20.247679"
     id="text10697"><tspan
       id="tspan10695"></tspan></text>
  <path
     style="fill:#0e74ff;fill-opacity:1;fill-rule:evenodd;stroke:#0e74ff;stroke-width:6;stroke-linecap:butt;stroke-linejoin:miter;stroke-miterlimit:4;stroke-dasharray:none;stroke-opacity:1"
     d="M 25.838835,21.453516 H 46.300129"
     id="path11910" />
  <path
     style="fill:#0e74ff;fill-opacity:1;fill-rule:evenodd;stroke:#0e74ff;stroke-width:6;stroke-linecap:butt;stroke-linejoin:miter;stroke-miterlimit:4;stroke-dasharray:none;stroke-opacity:1"
     d="M 25.838835,38.546491 H 46.300129"
     id="path15352" />
  <g
     aria-label="1"
     id="text21071"
     style="font-size:17.3494px;line-height:100%;font-family:'Helvetica Neue LT Std';-inkscape-font-specification:'Helvetica Neue LT Std';fill:#022255;fill-rule:evenodd;stroke:#022255;stroke-width:0.72289;stroke-linecap:round;stroke-linejoin:round">
    <path
       d="m 16.455533,27.092072 h 2.654458 v -11.27711 h -2.376868 l -2.671807,1.318554 0.433735,2.099278 1.925783,-0.936868 h 0.0347 z"
       id="path49099" />
  </g>
  <g
     aria-label="2"
     id="text41718"
     style="font-size:17.151px;line-height:100%;font-family:'Helvetica Neue LT Std';-inkscape-font-specification:'Helvetica Neue LT Std';fill:#022255;fill-rule:evenodd;stroke:#022255;stroke-width:0.714627;stroke-linecap:round;stroke-linejoin:round">
    <path
       d="M 20.640171,44.189171 V 41.856635 H 17.36433 v -0.0343 l 0.634587,-0.68604 c 1.234872,-1.320627 2.521197,-2.829915 2.521197,-4.922337 0,-1.560741 -0.788946,-3.310143 -3.481653,-3.310143 -1.011909,0 -2.040969,0.325869 -2.606952,0.668889 l 0.428775,2.05812 c 0.463077,-0.274416 1.046211,-0.531681 1.697949,-0.531681 0.874701,0 1.354929,0.565983 1.354929,1.320627 0,1.37208 -1.011909,2.658405 -2.504046,4.493562 l -1.183419,1.474986 v 1.800855 z"
       id="path49102" />
  </g>
</svg>
